Alena Procházková ;  1/18 + 21/98
Kateřina Černý ;  86%
Jana Nováková ;  14/33
Jan Pospíšilová ;  27/43
Michal Krejčí ;  19%
Hana Procházková ;  25/32
Jan Novotný ;  3/7
Marie Němec ;  31/45
František Procházka ;  1/14 + 13/52
Hana Procházka ;  23% + 4% + 14%
Jakub Černý ;  16/32
Milan Svobodová ;  2% + 2% + 11%
Lenka Veselý ;  12/40
Tomáš Nováková ;  23/26
Jakub Procházka ;  3% + 4%
Jaroslav Procházka ;  50%
Kateřina Němcová ;  0% + 3%
