Milan Procházka; 1% + 9%
Václav Dvořáková; 76%
Jakub Němec; 66%
Tomáš Novotný; 16%
Michal Dvořáková; 15% + 65%
Miroslav Pokorná; 74%
Lucie Pospíšilová; 28/88 + 7/60
Lenka Novák; 23% + 24% + 15%
Michal Černý; 23% + 0% + 25%
Alena Novotný; 9/15
