Jan Němec; 19/20
František Němcová; 5/35
Václav Procházka; 5/39
Jan Nováková; 12/16
Jakub Novotný; 64%
Marie Horáková; 23/70 + 4/98
Alena Pokorná; 1% + 43%
Jana Pokorná; 14/29
Lenka Novotný; 6/12
Michal Kučera; 46%
Václav Veselá; 9/16
Zdeněk Kučera; 4/5
Jan Marek; 75%
Jakub Marek; 1/11
Alena Veselý; 16/24
Zdeněk Němec; 19%
Marie Němcová; 6% + 3%
Marie Horáková; 16% + 71%
Eva Černý; 16/34
