Pavel Procházka; 23/72 + 4/90
Zdeněk Novotný; 37%
Michal Veselý; 24% + 14%
Jiří Černý; 13/41
Milan Kučerová; 73%
Alena Procházková; 11/39
Věra Krejčí; 32%
Jiří Kučera; 37% + 53%
Kateřina Horáková; 21/54 + 6/26
Anna Pokorná; 5/18 + 24/56
Zdeněk Černý; 17%
Alena Nováková; 7% + 18% + 30%
Věra Horák; 4%
Zdeněk Svoboda; 5/47
Tomáš Pospíšilová; 21% + 18% + 6%
