Michal Marek; 9% + 66%
Petr Pospíšilová; 28%
Hana Procházka; 1/4
Alena Novák; 8/9
Eva Krejčí; 37%
Václav Veselá; 2/3
Věra Svobodová; 4/18 + 7/42
Anna Dvořáková; 8/20
Jakub Dvořáková; 2/30
Pavel Marková; 68%
Miroslav Marková; 20% + 22% + 11%
Tomáš Kučerová; 8% + 10% + 26%
Josef Kučera; 25/37
Marie Novotný; 19%
Jakub Veselý; 0% + 1%
Jan Procházka; 1/2 + 10/24
Martin Nováková; 25/54 + 17/42
František Kučerová; 0%
