Petr Procházková; 3% + 1%
Jaroslav Svobodová; 59%
Tomáš Veselá; 6/36 + 8/28
Jiří Kučera; 39/49
Jaroslav Novák; 5/12 + 30/96
Jiří Černá; 17%
Jiří Krejčí; 1/8
Věra Dvořáková; 19/48
Anna Novotná; 35% + 16%
Jan Svobodová; 7/32
Jana Krejčí; 65%
Josef Horák; 8/60 + 19/46
Jakub Kučera; 35/37
Martin Černá; 4/22 + 24/56
Jan Horáková; 35%
Jan Krejčí; 56%
Miroslav Marková; 11/13
Tomáš Kučerová; 25% + 2% + 9%
Václav Němcová; 72%
