Eva Horák ;  53%
Jakub Nováková ;  34% + 62%
Petr Pospíšilová ;  6/29
Václav Pokorná ;  15%
Anna Dvořák ;  3/12 + 17/56
Věra Marek ;  43%
Eva Marková ;  19/19
Milan Černá ;  1/6 + 1/8
Marie Marková ;  44/88 + 5/22
Zdeněk Dvořák ;  1/14 + 25/64
Jaroslav Marková ;  47% + 27%
Věra Němec ;  8/12
