Lucie Veselá ;  35/40
Jana Krejčí ;  16/36
Věra Černý ;  28/33
Hana Dvořáková ;  65%
Jana Němec ;  23/40
Věra Nováková ;  20/100 + 3/30
Jiří Pokorná ;  98%
Jakub Horák ;  6% + 55%
Marie Novák ;  11/78 + 31/82
František Svobodová ;  75%
Hana Veselá ;  1% + 1%
Zdeněk Černá ;  7%
Petr Kučerová ;  66%
Alena Horák ;  23% + 4% + 29%
Jaroslav Horák ;  60%
Anna Dvořák ;  9% + 35%
Petr Svoboda ;  26/38
Jaroslav Novák ;  94%
Lenka Kučera ;  90%
