František Veselý; 13/38 + 8/26
Tomáš Horáková; 8% + 14%
Václav Černý; 42/96 + 18/56
Marie Novotný; 8/24
Martin Svobodová; 30% + 8% + 27%
Martin Novák; 2/37
Hana Dvořáková; 24/39
Jakub Němcová; 15% + 23% + 14%
Josef Horák; 26% + 49%
Jana Novotný; 31/33
Michal Horák; 2% + 23%
Petr Horák; 17/20
Petr Černý; 5/28 + 15/50
Michal Kučera; 17/44 + 1/12
Alena Kučera; 17/26
