Pavel Veselý; 1/3
Martin Novotný; 11%
Alena Černý; 18/46
Lenka Marková; 5/10
Václav Dvořáková; 5% + 10% + 9%
Lenka Nováková; 32% + 32%
Jakub Procházka; 48/50
Lenka Horák; 8% + 32% + 30%
Miroslav Nováková; 1/4 + 8/98
Jana Procházková; 30% + 19% + 26%
