Martin Dvořák ;  13% + 1% + 25%
Petr Kučerová ;  21% + 5%
Pavel Svobodová ;  18%
Věra Novotná ;  14/26
Jiří Pokorná ;  2% + 0% + 28%
Josef Dvořák ;  38%
Eva Procházková ;  2/7
Jakub Svoboda ;  68%
Michal Kučera ;  15/42
Jakub Procházka ;  75%
Jaroslav Svobodová ;  4/4
Marie Novotný ;  5/16 + 5/44
Hana Novák ;  11% + 1%
Jiří Novotná ;  1/2
Lucie Černá ;  86%
Pavel Dvořák ;  20/32
Marie Svobodová ;  3/66 + 20/52
