Eva Němcová; 34%
Zdeněk Procházka; 20% + 5%
Alena Marková; 11/41
Miroslav Veselý; 1% + 51%
Martin Kučerová; 18% + 16% + 3%
Martin Kučera; 24/28
Miroslav Novotná; 2/10
Jana Marek; 28% + 9% + 12%
Lucie Svoboda; 1/10 + 8/58
Michal Novotná; 15% + 28% + 15%
František Svoboda; 41% + 20%
Jakub Krejčí; 4/50
Lenka Němcová; 15/29
Pavel Veselá; 76%
