Václav Marková; 28% + 16% + 14%
Věra Nováková; 29/29
Jana Procházka; 1/25
Lenka Pospíšilová; 2/6
Eva Nováková; 16% + 21% + 1%
Jan Kučera; 1/1
Pavel Procházka; 22% + 26% + 30%
Václav Němec; 3% + 11%
Jaroslav Marek; 11/16
Lenka Veselý; 17/43
Jiří Novák; 23/48
Milan Procházka; 4/17
Anna Marková; 51% + 13%
Věra Černá; 1/20
