Kateřina Horák; 89%
Zdeněk Dvořáková; 75%
Jaroslav Svobodová; 26/33
Miroslav Horák; 1% + 31% + 3%
Pavel Svobodová; 1/78 + 19/46
Jana Dvořáková; 43%
Eva Novotný; 12/13
Martin Veselá; 2/10
Kateřina Němec; 3%
Josef Procházka; 35/50
František Krejčí; 6% + 52%
Jiří Němec; 45%
Jaroslav Svobodová; 4/6
Jan Veselý; 24% + 36%
Eva Veselý; 38%
František Svobodová; 9/14
Jaroslav Horáková; 29/39
