Jakub Pokorná ;  11/35
Zdeněk Veselý ;  14% + 9%
Martin Němcová ;  1/25
Jakub Novotný ;  4% + 12% + 3%
Lucie Svobodová ;  15%
Josef Horáková ;  12% + 25% + 14%
Věra Marek ;  1/4
Věra Veselý ;  7/10
Kateřina Veselý ;  6/34 + 3/44
František Veselý ;  4% + 58%
