Anna Černý; 51% + 4%
Kateřina Marková; 24%
Hana Černá; 6% + 14%
Martin Nováková; 19% + 11% + 30%
Jakub Procházka; 14/42 + 32/76
Kateřina Horák; 8% + 1% + 22%
Zdeněk Pokorná; 2/96 + 3/10
Eva Černá; 11% + 13% + 23%
Věra Pospíšilová; 6% + 25%
Michal Procházka; 22% + 7% + 31%
