Tomáš Horák; 1/4
Milan Dvořák; 5/26
Věra Němcová; 28/94 + 3/20
Jiří Svoboda; 37%
Jakub Horáková; 37%
Tomáš Němcová; 23/43
Hana Dvořák; 23% + 27% + 27%
Václav Horák; 79%
Milan Krejčí; 1/4
Anna Pospíšilová; 50%
Michal Marková; 60% + 37%
Marie Horák; 19% + 31%
Lucie Dvořák; 22/80 + 3/6
Jan Pokorná; 2% + 2%
Josef Veselý; 70%
Miroslav Dvořák; 26%
Jana Marek; 2%
Anna Krejčí; 98%
