Kateřina Dvořáková ;  98%
Kateřina Novotná ;  80% + 15%
Miroslav Marková ;  7/15
Kateřina Veselý ;  21%
Jan Černý ;  6% + 30% + 2%
Eva Dvořáková ;  21/32
Kateřina Svoboda ;  13/16
Lucie Veselý ;  28% + 22% + 10%
Kateřina Svoboda ;  24% + 11%
Hana Němec ;  79%
Eva Marková ;  8% + 0% + 9%
Věra Dvořák ;  61%
Tomáš Kučera ;  29% + 23% + 9%
Jana Horák ;  13/50 + 6/18
Eva Novák ;  6/34 + 4/16
Milan Pospíšilová ;  90%
Tomáš Pospíšilová ;  37%
