Jiří Pokorná; 27% + 21% + 17%
Zdeněk Pospíšilová; 59%
Petr Dvořák; 41% + 52%
Kateřina Svoboda; 12/72 + 2/16
Michal Veselá; 2/6
Jan Marek; 8/9
Anna Němec; 14%
Miroslav Svoboda; 11% + 1% + 7%
Zdeněk Pokorná; 60%
Jaroslav Krejčí; 14/30
Lucie Svobodová; 3% + 26%
