Jakub Pokorná ;  17/44
Věra Svobodová ;  6% + 5% + 2%
Anna Dvořák ;  27/100 + 13/78
Jan Procházková ;  81%
Věra Černý ;  7/7
Pavel Černý ;  21%
Alena Veselý ;  2/16
Pavel Kučera ;  3/10 + 10/80
Kateřina Černá ;  2% + 15%
Martin Pokorná ;  26% + 23% + 7%
Kateřina Němec ;  14%
Eva Kučerová ;  2% + 3%
Jana Marková ;  71%
