Milan Novák ;  27%
Jaroslav Černý ;  1/1
Alena Krejčí ;  26/30
Pavel Černý ;  25%
Anna Černý ;  20% + 10%
Hana Černá ;  30% + 25% + 25%
Lucie Němcová ;  83% + 3%
Jana Procházková ;  6% + 3% + 31%
Eva Novotný ;  4/8
Věra Svoboda ;  30% + 26% + 18%
Pavel Kučera ;  67%
Jakub Marková ;  2%
Jakub Dvořáková ;  2/3
Marie Procházková ;  99%
Jan Pokorná ;  16/90 + 2/30
