Václav Němec ;  28/29
Petr Dvořáková ;  1% + 18% + 27%
Eva Horáková ;  93%
Hana Veselý ;  10% + 12%
Jakub Marek ;  40% + 12%
Hana Dvořák ;  48%
Tomáš Dvořáková ;  12/16
František Procházka ;  1/4
Lenka Dvořák ;  35%
Lenka Černý ;  8% + 5%
Jan Krejčí ;  4/14
Josef Svoboda ;  5% + 82%
Eva Kučerová ;  20/76 + 35/78
Věra Horáková ;  8% + 18%
Miroslav Nováková ;  1/27
Milan Černý ;  62%
