František Horák ;  19/41
Alena Němec ;  7/14
Lucie Novotná ;  36%
Michal Horáková ;  26%
Eva Procházka ;  85% + 5%
Anna Němec ;  8/22
Michal Procházková ;  11/56 + 2/22
Zdeněk Pospíšilová ;  3/7
Jana Marek ;  32% + 3% + 14%
Anna Novotný ;  18% + 23% + 4%
Milan Svoboda ;  2/37
Jaroslav Pokorná ;  33% + 21% + 18%
Lenka Němec ;  6/12 + 24/58
Lucie Svoboda ;  8/56 + 16/86
Lenka Dvořák ;  20% + 53%
Lenka Černý ;  12%
