Michal Horáková ;  28% + 33% + 9%
Pavel Veselý ;  42%
Lenka Kučerová ;  27/43
Tomáš Veselá ;  58%
Kateřina Nováková ;  7/27
Jan Kučera ;  6% + 17%
Jan Dvořák ;  3% + 3% + 15%
Alena Procházková ;  0% + 13% + 1%
Lenka Černý ;  5/29
Tomáš Novotný ;  26/82 + 5/52
