Věra Horáková ;  73%
Josef Novák ;  5% + 4%
Jana Dvořáková ;  31/44
Milan Marková ;  28%
František Dvořáková ;  48%
Alena Horák ;  6/8
Jan Horák ;  5% + 11%
Alena Kučera ;  0% + 7%
Alena Veselá ;  8% + 22% + 0%
Jana Kučera ;  12/21
Jiří Krejčí ;  1/4
Hana Kučerová ;  64%
Věra Němec ;  6%
Josef Marková ;  13%
Josef Novotná ;  53% + 38%
Tomáš Černý ;  35% + 12%
