Petr Černá ;  4/10
Alena Pokorná ;  9% + 2% + 29%
Miroslav Veselá ;  11/30 + 24/96
Petr Černá ;  9/40
Lenka Novák ;  3/24
Zdeněk Procházka ;  60%
Anna Pokorná ;  5% + 31%
Kateřina Novotný ;  18/37
Anna Dvořák ;  79%
Anna Horák ;  31% + 3% + 20%
Eva Pokorná ;  7% + 2%
Anna Dvořáková ;  14/36 + 6/32
Tomáš Němcová ;  5/5
Věra Procházková ;  89%
Lenka Marek ;  7% + 73%
Hana Pospíšilová ;  3/4
Václav Marek ;  10%
Michal Novotná ;  12% + 48%
František Dvořáková ;  22/98 + 2/82
