Eva Kučera ;  1% + 1%
Lucie Krejčí ;  14% + 17% + 20%
Lucie Procházková ;  20/42 + 1/2
Marie Marková ;  31%
Kateřina Horák ;  4% + 52%
Milan Pospíšilová ;  25%
Michal Svoboda ;  17%
Josef Němcová ;  2/19
Pavel Krejčí ;  33%
František Černá ;  56%
Tomáš Novotný ;  12% + 24% + 9%
Věra Krejčí ;  15% + 23% + 10%
Jiří Novotný ;  10/30 + 19/98
Zdeněk Dvořák ;  25/50
Hana Svoboda ;  77%
Tomáš Svoboda ;  13% + 20%
Tomáš Svobodová ;  54%
Josef Procházková ;  8% + 17% + 11%
