Tomáš Novotný; 29% + 34%
František Novotná; 19% + 17% + 20%
Jana Němec; 48%
Marie Veselá; 14/48
Tomáš Kučera; 23% + 14% + 31%
Lenka Kučera; 27/38
Jiří Dvořáková; 17/37
Tomáš Novotná; 18% + 24% + 10%
Kateřina Kučerová; 54%
Anna Veselá; 43%
Pavel Černý; 56%
Petr Svobodová; 32/44
Lucie Němec; 21/30
Miroslav Novotný; 9/12
