Jakub Dvořáková; 23/29
Eva Černá; 59%
Zdeněk Novotný; 2/17
Anna Svoboda; 37% + 27%
Věra Dvořák; 7% + 51%
Petr Procházková; 7/42
Jan Černý; 2/34 + 9/32
Eva Pospíšilová; 13% + 66%
Hana Marková; 37/41
Lenka Novotná; 1/20 + 6/22
Hana Kučerová; 43%
Jan Horák; 33/38
Hana Němcová; 8%
