Miroslav Nováková; 2%
Zdeněk Černá; 52%
Alena Marková; 8% + 5%
Anna Horáková; 40% + 26%
Jaroslav Kučerová; 36%
Eva Novotná; 14/100 + 8/38
Jaroslav Němec; 82%
Pavel Novotný; 31%
Zdeněk Horáková; 18/24
Martin Nováková; 7/82 + 11/44
František Němcová; 23% + 18% + 2%
Jana Černý; 32% + 28%
Pavel Pospíšilová; 1% + 4%
Jan Černá; 69% + 11%
Marie Novák; 97%
Michal Dvořák; 41% + 9%
Věra Černá; 15% + 17%
Marie Procházková; 13%
