Hana Veselý; 4/94 + 11/40
Lenka Krejčí; 56%
Hana Pokorná; 2/18 + 6/54
Anna Kučerová; 2%
Anna Pospíšilová; 6/46
Eva Marek; 21/29
Lucie Marková; 2/2
Milan Kučera; 48%
Zdeněk Pokorná; 10/10
Zdeněk Veselá; 62%
František Němcová; 30% + 19% + 32%
