František Černá; 86%
Pavel Černá; 5%
Anna Novotná; 57% + 6%
Kateřina Procházková; 28%
Michal Němcová; 4% + 16% + 21%
Kateřina Procházka; 2/3
Jakub Veselý; 6%
Anna Procházková; 18/27
Jan Svobodová; 14% + 54%
Václav Procházková; 3/8
Hana Nováková; 64%
Eva Krejčí; 20% + 24% + 11%
Miroslav Horák; 8% + 70%
