Jiří Kučera ;  2/22
Jaroslav Marková ;  21%
Hana Marková ;  5/41
František Veselá ;  15%
Josef Černá ;  46% + 14%
Anna Procházka ;  5%
Alena Horáková ;  14/40
Jana Horák ;  92%
František Veselá ;  15/49
František Veselý ;  31% + 8% + 26%
