Věra Svobodová ;  4/47
Jiří Novák ;  98%
Anna Němec ;  15%
Václav Nováková ;  47%
Zdeněk Svoboda ;  23/36
Zdeněk Němcová ;  15/22
Jana Pospíšilová ;  44% + 41%
Lucie Kučera ;  23% + 2% + 20%
Michal Svoboda ;  18/60 + 9/22
Jan Marková ;  1% + 26%
Václav Novák ;  1% + 2%
Kateřina Procházka ;  17% + 60%
Václav Dvořák ;  1/1
Petr Novák ;  7/16
Pavel Novák ;  6%
Zdeněk Veselý ;  34/86 + 2/92
František Procházka ;  25/49
Josef Veselý ;  43%
