Jaroslav Veselý ;  49%
Eva Veselá ;  7% + 21%
Jakub Černý ;  5/7
Václav Veselá ;  8%
Martin Nováková ;  26/36
Václav Dvořák ;  94%
Lucie Pokorná ;  15% + 13% + 8%
Josef Svoboda ;  2/10
Jan Pospíšilová ;  1%
Marie Novák ;  3/42 + 25/62
Marie Dvořák ;  12/70 + 30/92
Jana Pokorná ;  4% + 17% + 15%
Pavel Dvořák ;  50% + 39%
Jakub Dvořáková ;  70%
Jan Kučera ;  4% + 9%
Michal Veselá ;  8% + 29% + 12%
