Václav Pokorná ;  45/46
Petr Veselá ;  28%
Milan Pospíšilová ;  16/25
Kateřina Marková ;  27/62 + 3/46
Jakub Novák ;  10/24 + 32/88
Věra Procházka ;  6% + 28% + 4%
Martin Svoboda ;  46%
Josef Marková ;  88%
Jakub Dvořák ;  2/27
Jakub Svobodová ;  8%
Miroslav Marková ;  18/46
Eva Nováková ;  7% + 17% + 28%
Pavel Horák ;  30%
Jan Krejčí ;  17/17
Jaroslav Pospíšilová ;  18/44 + 4/14
Anna Němcová ;  2% + 21% + 19%
Tomáš Dvořák ;  27/48
