Lucie Němec; 3/24 + 26/68
Jaroslav Nováková; 3/86 + 4/8
Jaroslav Černá; 9% + 17%
Eva Marková; 7/8
Petr Marek; 4/46 + 13/32
Zdeněk Kučera; 91%
Hana Novotná; 17/24
Anna Černý; 3%
Lucie Horák; 77%
Jiří Němcová; 12% + 1%
Anna Černá; 14% + 24% + 23%
Milan Dvořák; 38/44
Josef Svobodová; 18% + 72%
Hana Němec; 3/14
