Alena Novotný; 7/30 + 1/4
Josef Černý; 24% + 23% + 7%
Lucie Pospíšilová; 9/47
Martin Procházka; 41% + 41%
Miroslav Novotná; 39%
Josef Procházková; 16/36 + 18/100
Jakub Dvořáková; 20/37
Lenka Kučera; 5% + 34%
Miroslav Kučerová; 38/96 + 1/12
Jana Pospíšilová; 1/20
Eva Pospíšilová; 18% + 17% + 12%
Petr Němcová; 19%
Miroslav Černý; 45%
Pavel Novák; 19/20
Jaroslav Veselá; 33% + 1% + 2%
