Miroslav Dvořák ;  17/36 + 3/6
Jaroslav Dvořák ;  40% + 45%
Kateřina Marek ;  6/36
Martin Pospíšilová ;  5/18 + 7/68
Zdeněk Svoboda ;  20%
Jan Horák ;  19% + 6%
Marie Novotný ;  3/7
Tomáš Novotný ;  26%
Hana Novotný ;  52%
Jakub Novotná ;  19% + 20% + 23%
Josef Pokorná ;  3/36
Marie Kučera ;  1/2
Jaroslav Dvořák ;  4/48
Martin Marková ;  82%
Lenka Veselá ;  69%
Jaroslav Horáková ;  10% + 22% + 2%
