Jana Veselý; 4/34 + 1/48
Alena Kučera; 14%
Kateřina Černý; 27% + 25% + 33%
Jakub Marek; 16% + 2% + 8%
Marie Dvořáková; 23% + 25% + 11%
Václav Pospíšilová; 7/38 + 1/4
Martin Novák; 11% + 30% + 0%
Milan Dvořáková; 23% + 0% + 26%
Jiří Černý; 84%
Jiří Horák; 14/72 + 15/46
Eva Černá; 3/4
Zdeněk Kučerová; 19% + 2%
