Alena Procházková ;  13/40
Lucie Kučerová ;  2% + 3%
Alena Novotná ;  6/14 + 13/66
Anna Dvořáková ;  14% + 36%
Jaroslav Pokorná ;  2% + 13% + 25%
Petr Novotná ;  24% + 1% + 32%
Alena Marková ;  5/24
Jana Černá ;  36%
Anna Marek ;  4/50 + 12/90
Zdeněk Pokorná ;  2/28
