Miroslav Veselá; 29% + 58%
Josef Novotný; 28/33
Lenka Černá; 43%
Hana Němec; 28% + 21% + 8%
František Němcová; 1% + 21% + 0%
Eva Němcová; 12% + 17% + 28%
Jana Němec; 14/58 + 21/100
Jakub Horáková; 14%
Lucie Svoboda; 35/35
Lucie Svoboda; 1/4
Jiří Kučera; 63%
Václav Dvořáková; 83%
Alena Svobodová; 70%
Petr Marková; 61%
Jan Černý; 0% + 1%
Jiří Dvořáková; 79%
