Eva Veselá; 3/22
Miroslav Svobodová; 7/20 + 41/92
Tomáš Procházka; 11/16
Pavel Kučerová; 57%
Pavel Černý; 51% + 7%
Milan Procházková; 59%
Milan Svobodová; 21/41
Martin Svoboda; 3%
Miroslav Kučera; 2%
Lucie Dvořák; 26% + 6%
Martin Kučera; 32/38
Pavel Marek; 92%
Milan Horák; 33/66 + 2/4
Věra Procházková; 86%
Jan Marková; 92% + 3%
Kateřina Horák; 16/21
