František Veselá; 12%
Eva Svoboda; 1/8 + 3/74
Jana Veselá; 10% + 3%
Lucie Marková; 6/48 + 19/52
Lenka Horák; 9%
Zdeněk Němec; 59% + 24%
Hana Nováková; 7/26
Josef Černá; 93%
Miroslav Marková; 27%
Marie Novotný; 75%
Marie Dvořáková; 2/64 + 2/30
Jana Krejčí; 0% + 27%
