Jiří Marek; 26/50
Zdeněk Černá; 6% + 31% + 5%
Hana Novák; 33%
Jaroslav Procházková; 27/48
Michal Marková; 79%
Lucie Němcová; 30% + 9%
Eva Černý; 6/31
Hana Dvořáková; 66%
Jan Novotný; 50% + 15%
Martin Dvořáková; 32%
Marie Veselá; 19/100 + 6/44
Kateřina Marková; 2% + 93%
Pavel Svobodová; 33% + 24%
Věra Horáková; 4% + 7%
Martin Svoboda; 6/12
Věra Svobodová; 78% + 10%
Petr Novotná; 70%
Hana Novotná; 22/25
