Jaroslav Novotná ;  14% + 13% + 3%
Pavel Černý ;  42/45
Anna Kučera ;  4/6
Pavel Horák ;  37/78 + 13/54
Lucie Veselá ;  26% + 25% + 29%
Jan Němcová ;  12/46 + 23/56
Alena Procházková ;  40%
Jaroslav Černý ;  12/36
Lenka Marková ;  96%
Zdeněk Novotný ;  65%
Pavel Dvořáková ;  6% + 0% + 4%
Alena Kučerová ;  14/37
Petr Němcová ;  75%
Věra Černá ;  69%
František Nováková ;  7/17
Jaroslav Novotný ;  16%
Lenka Krejčí ;  64%
