Petr Černý ;  0% + 17% + 6%
Jana Procházková ;  15% + 8% + 31%
Věra Dvořák ;  16% + 13%
Anna Kučerová ;  2/11
Petr Veselý ;  5/6
Věra Dvořáková ;  12% + 29% + 26%
Hana Černá ;  9%
Jiří Němec ;  88%
Kateřina Marek ;  75%
Tomáš Černý ;  3/34
