Michal Pospíšilová ;  5%
Václav Krejčí ;  34% + 62%
Martin Černá ;  27% + 25% + 31%
Hana Nováková ;  20% + 1% + 3%
Michal Svoboda ;  53% + 6%
Eva Procházka ;  46%
Jiří Svobodová ;  2/45
Josef Dvořáková ;  36%
Jakub Novotný ;  76%
Josef Černý ;  82%
Tomáš Procházka ;  5/14
Eva Marková ;  30% + 0% + 31%
Hana Veselý ;  68%
Lucie Procházka ;  21/50 + 31/78
Václav Marková ;  3/36 + 20/66
Tomáš Svobodová ;  6% + 24% + 17%
Zdeněk Dvořák ;  17/100 + 21/80
