Martin Krejčí ;  11% + 2%
Petr Horák ;  41%
Jan Svobodová ;  2/6
Hana Novotná ;  38/42
Petr Pospíšilová ;  1/7
Jan Veselý ;  83% + 3%
Tomáš Marek ;  26% + 17%
Kateřina Němcová ;  5/36 + 7/44
Eva Procházková ;  28% + 46%
Jiří Černý ;  30/44
Jan Pospíšilová ;  68%
Jana Kučera ;  15/23
Martin Němec ;  4% + 6% + 17%
Petr Novák ;  5/12 + 4/30
