Jiří Novák; 66%
Miroslav Svobodová; 14/41
Hana Dvořák; 16%
Lenka Marková; 8/9
Jana Horáková; 96%
Miroslav Kučera; 20% + 30% + 14%
Martin Kučera; 36/80 + 7/38
Miroslav Svoboda; 17/84 + 4/38
Michal Novák; 66%
František Pokorná; 38%
Lenka Marek; 20% + 21%
Jiří Svoboda; 19/28
Jiří Novotná; 19/28
Jaroslav Kučerová; 10% + 31% + 12%
Jana Procházka; 8%
Jana Černá; 13/35
