Jan Horáková; 2/9
Hana Veselá; 39%
Michal Novotná; 13/15
Tomáš Kučera; 26% + 44%
František Procházka; 35%
Michal Procházka; 17%
Václav Novotný; 2/9
František Němcová; 16% + 4% + 19%
Eva Černý; 6/9
Petr Dvořák; 7%
Jan Němec; 27% + 13% + 14%
Hana Dvořáková; 28% + 1% + 17%
