Pavel Krejčí; 16% + 59%
Jaroslav Dvořák; 18% + 6% + 26%
Lenka Novotná; 2/20
Marie Veselá; 14/42
Eva Svoboda; 1/19
Jiří Dvořáková; 11/49
Jan Němec; 2%
František Horák; 7% + 1%
Alena Dvořáková; 26% + 0% + 21%
Hana Pospíšilová; 0% + 83%
