Michal Marková; 10/32 + 22/84
Věra Procházková; 5% + 9% + 25%
František Svobodová; 69%
Anna Němec; 7% + 6%
Eva Horák; 12% + 9% + 25%
Kateřina Pokorná; 1/1
Václav Kučera; 1% + 4%
Kateřina Dvořáková; 94%
Martin Marek; 21% + 2% + 7%
Jana Pokorná; 27/33
Pavel Krejčí; 82% + 10%
Jiří Němcová; 20/50 + 6/18
Eva Dvořáková; 1/38
Jiří Novotná; 95%
Petr Horáková; 2/37
Lenka Horák; 22/90 + 12/74
Jan Kučera; 6% + 3% + 2%
Marie Černý; 9%
