Jana Kučerová; 66%
Jaroslav Nováková; 55%
Josef Marek; 20% + 12% + 0%
Josef Kučerová; 15/64 + 9/32
Kateřina Černý; 49%
Kateřina Dvořák; 22/24
František Černý; 46%
Michal Němcová; 2/2
Kateřina Marková; 7% + 4% + 5%
Jana Pokorná; 20/34
Tomáš Němcová; 1% + 45%
Zdeněk Krejčí; 78%
Jan Marková; 6/28 + 18/62
Anna Procházková; 4/7
