Věra Kučera; 16/68 + 2/12
Jiří Kučera; 47% + 16%
Alena Procházková; 53%
Martin Svobodová; 1/2
Kateřina Svoboda; 27%
Marie Procházka; 6/22 + 17/80
Pavel Marek; 27/94 + 12/32
Josef Kučerová; 15% + 71%
František Horáková; 6/6
Eva Pospíšilová; 1/16
Miroslav Dvořák; 3/6
Jakub Němcová; 24/35
Alena Dvořák; 23/60 + 1/8
Václav Dvořáková; 18%
