Jiří Horáková; 79%
Miroslav Novotný; 0% + 15%
Hana Marek; 36%
Milan Procházka; 16/42 + 12/28
Jaroslav Černá; 40/49
Václav Svoboda; 17/38 + 11/42
Josef Pokorná; 14/21
Miroslav Novotný; 9/10
Tomáš Horák; 78%
Kateřina Dvořák; 92%
František Marková; 27/64 + 7/52
Anna Pospíšilová; 8% + 27%
Eva Dvořák; 35%
Věra Horáková; 27% + 30% + 0%
Milan Krejčí; 10% + 2% + 17%
Jana Nováková; 5/90 + 18/54
