Václav Němec; 4/100 + 5/42
Věra Horáková; 65%
Václav Kučera; 47%
Lenka Marková; 11% + 13% + 18%
Jakub Krejčí; 16%
Alena Marková; 29% + 13%
Alena Dvořák; 2/5
Martin Kučera; 8% + 23% + 31%
Lucie Pokorná; 30% + 23% + 20%
Anna Horáková; 12/70 + 6/46
Alena Pospíšilová; 14% + 3% + 25%
Lucie Novotný; 87%
Pavel Marková; 57%
Tomáš Veselá; 11% + 16%
Petr Krejčí; 25/94 + 4/10
