Václav Pokorná; 73%
Tomáš Svobodová; 6%
Zdeněk Kučera; 3/20
Eva Marek; 8/13
Michal Dvořáková; 23% + 47%
Jana Horák; 35%
Jakub Marková; 0%
Eva Novák; 1/24 + 3/6
Josef Černá; 19% + 28% + 23%
Lenka Krejčí; 18% + 7% + 17%
Marie Veselá; 14/80 + 16/64
Lucie Marková; 37/43
Alena Černý; 75%
Josef Marková; 53%
Anna Dvořáková; 87%
Pavel Černý; 33/68 + 6/20
