Lenka Procházka; 15/29
Eva Pospíšilová; 25% + 15% + 9%
Jakub Novotný; 71%
Milan Krejčí; 15/19
Anna Dvořák; 27/28
Jan Němec; 8%
Petr Novotný; 30/41
Pavel Svobodová; 71%
Miroslav Svoboda; 17% + 16% + 9%
Pavel Černá; 87%
Lucie Krejčí; 2%
Pavel Němec; 34%
Martin Novotná; 8% + 9% + 10%
