František Černý; 96%
Kateřina Nováková; 30% + 13% + 7%
Václav Procházková; 66%
Martin Černý; 35%
Jan Černý; 0%
Jan Veselý; 2% + 30% + 11%
Jiří Kučera; 71% + 9%
Jaroslav Pokorná; 30/88 + 6/30
Kateřina Němec; 20%
Zdeněk Procházka; 6/31
Jan Pokorná; 20%
Michal Procházková; 53%
Jiří Procházková; 84%
