Kateřina Pospíšilová; 10%
Jana Dvořáková; 8/38
Martin Veselý; 4% + 1%
Martin Nováková; 10/25
Jaroslav Kučera; 48/50
Lenka Němec; 3% + 40%
Jana Němcová; 32% + 14%
Lenka Novotný; 63%
Pavel Marková; 38% + 18%
Jakub Procházková; 32/46
Tomáš Dvořáková; 3/4
Alena Horáková; 87%
Michal Horák; 15/32
