František Veselá ;  43%
Pavel Marková ;  95%
Lenka Kučera ;  59%
Eva Marková ;  97%
Eva Černá ;  10/26
Kateřina Černý ;  35/45
Jiří Pokorná ;  32% + 20% + 11%
Petr Marková ;  71%
Věra Veselý ;  19/28
Lucie Veselá ;  29/80 + 1/4
Marie Svobodová ;  54%
Jaroslav Černá ;  15% + 10% + 23%
Jakub Marek ;  5/8
