Jana Pospíšilová; 48% + 27%
František Horáková; 28/39
Eva Němec; 2/3
Věra Veselý; 21/37
Jiří Svoboda; 24% + 16%
Josef Procházka; 25% + 30% + 28%
Hana Novotný; 31% + 26%
Alena Horáková; 30% + 15% + 7%
Tomáš Novák; 9/48 + 6/72
Jana Němec; 39/43
