Věra Kučera ;  70%
František Pokorná ;  21/35
Lenka Horáková ;  9/26 + 5/66
Hana Dvořáková ;  95%
František Svobodová ;  77%
Jakub Veselý ;  45%
Lenka Veselá ;  32% + 16% + 13%
Alena Němcová ;  2%
Jiří Dvořák ;  6/50
Václav Černý ;  13/15
Hana Novotná ;  1/1
Pavel Novotný ;  10/74 + 16/90
