Hana Pokorná ;  41% + 2%
Václav Černá ;  98%
Alena Pospíšilová ;  4/8
Jakub Kučera ;  54% + 29%
Michal Marek ;  3/50
Michal Černá ;  51%
Jaroslav Procházková ;  80%
Josef Marková ;  5%
Jakub Nováková ;  24% + 21% + 9%
Jana Kučera ;  8%
Marie Novotný ;  13/18
Lenka Procházková ;  2%
Pavel Svobodová ;  35%
Petr Němcová ;  21% + 0% + 31%
