Tomáš Nováková ;  4% + 24% + 11%
Lenka Horáková ;  26%
Jiří Marek ;  11/12
Milan Svoboda ;  26/30
Hana Němcová ;  96%
Lenka Procházková ;  10/24
Alena Veselý ;  53%
Věra Marek ;  6% + 6%
Věra Procházková ;  60%
Anna Veselá ;  26% + 10% + 4%
Milan Veselá ;  3%
Jan Černý ;  4/12
Pavel Krejčí ;  15/17
