Petr Kučera ;  58%
Petr Němec ;  8/9
Václav Novotná ;  39/49
Martin Veselý ;  4% + 37%
Pavel Kučera ;  13/50 + 24/86
Anna Němcová ;  76%
Michal Horák ;  34/34
Michal Černá ;  22% + 8% + 20%
Zdeněk Kučera ;  6/96 + 14/50
Kateřina Veselý ;  2/2
Pavel Marek ;  29/35
Zdeněk Pokorná ;  20/28
Eva Veselý ;  97%
František Marek ;  8/16 + 1/4
Hana Pokorná ;  26/42
