Kateřina Němcová; 4/98 + 7/22
Marie Horák; 5%
Zdeněk Marek; 57%
Lenka Procházka; 5/10 + 41/96
Michal Nováková; 8% + 3%
Lucie Marek; 3%
Petr Veselý; 9/9
Petr Svoboda; 15/48 + 12/96
Anna Pospíšilová; 59%
Eva Novák; 59%
Marie Nováková; 56%
Milan Černá; 22% + 19% + 20%
Věra Novotný; 22/42
Pavel Procházka; 1/10 + 39/90
Lucie Svoboda; 93%
Zdeněk Veselá; 4% + 14%
Milan Veselý; 30%
Alena Veselá; 7% + 31% + 30%
Lucie Němec; 92%
