Věra Horák; 86%
Eva Kučera; 16/21
Tomáš Novák; 58% + 39%
Milan Krejčí; 3%
Josef Novák; 6/33
Marie Novák; 8/16
Hana Svoboda; 43%
Alena Kučera; 1% + 5%
Milan Marková; 1/5
Marie Procházková; 10% + 22% + 17%
Eva Pospíšilová; 17%
Václav Novák; 14% + 12% + 7%
Marie Kučera; 15%
Jiří Novák; 18% + 4%
