Zdeněk Novotná ;  66%
Anna Novák ;  17/26
Marie Svoboda ;  3/8 + 42/92
Jiří Novotná ;  63%
Tomáš Marková ;  84%
Kateřina Marková ;  10%
Marie Pokorná ;  17/18
Jiří Procházka ;  46%
Věra Novotná ;  17% + 74%
Zdeněk Horáková ;  6% + 6%
Josef Pospíšilová ;  17/19
Marie Veselá ;  8/46
Jakub Dvořáková ;  8/15
Lenka Pospíšilová ;  12/64 + 15/38
