Anna Svoboda ;  6/16 + 2/96
Jiří Novák ;  1/7
Alena Procházka ;  4/90 + 24/74
Jakub Marková ;  8/20 + 8/48
Jan Novotná ;  65%
Milan Dvořáková ;  33/80 + 11/42
Milan Horák ;  38/100 + 13/52
František Horák ;  11/18
Miroslav Dvořák ;  41%
Kateřina Dvořák ;  4/4
Jan Procházka ;  9% + 21% + 28%
Jan Procházková ;  30% + 10%
Jaroslav Krejčí ;  24/45
Petr Procházková ;  7% + 3%
Jiří Černá ;  8/12
Věra Novotná ;  56% + 26%
Milan Svobodová ;  3/12
