Miroslav Novotný ;  27/31
Josef Marková ;  13/36
Jakub Kučerová ;  25% + 8% + 13%
Alena Němec ;  11/16
Jaroslav Procházková ;  49%
Eva Svobodová ;  29% + 23% + 17%
Jana Svobodová ;  33/49
Jaroslav Černá ;  7% + 19%
Alena Krejčí ;  1/48
Anna Veselý ;  4/8 + 13/100
Kateřina Dvořák ;  5/19
Eva Černá ;  2%
Petr Černá ;  74%
