Miroslav Dvořák; 89%
Jakub Nováková; 2/18 + 25/86
František Svobodová; 3% + 14%
Věra Dvořáková; 4/14 + 14/30
Zdeněk Novotná; 28% + 11%
Pavel Marková; 37% + 2%
Miroslav Pospíšilová; 8% + 13% + 7%
František Novák; 9%
Milan Horáková; 7% + 14% + 7%
Zdeněk Novák; 15/47
Josef Novák; 1/1
