Hana Kučera ;  82%
Jiří Němec ;  14% + 10% + 29%
Alena Novák ;  1/1
František Novotný ;  0% + 0% + 3%
Jana Černý ;  12/34
Jan Kučerová ;  38% + 36%
Eva Svoboda ;  10% + 11% + 3%
Alena Veselá ;  8%
Hana Svoboda ;  7/23
Lenka Kučerová ;  0% + 54%
Lenka Svoboda ;  12%
Pavel Procházková ;  12/12
Miroslav Horák ;  9/36 + 33/100
Alena Černá ;  18% + 23% + 27%
