Miroslav Novotná ;  3/6
Martin Horáková ;  93%
Pavel Nováková ;  25/49
Kateřina Novotná ;  5/23
Lucie Svobodová ;  10/42
Miroslav Marková ;  35%
Jakub Dvořáková ;  98%
Eva Svobodová ;  44%
Anna Pokorná ;  14% + 21% + 7%
Miroslav Marková ;  10% + 31% + 31%
Věra Kučera ;  47% + 3%
Jaroslav Svoboda ;  19/84 + 1/56
Lenka Svoboda ;  21/38
Josef Novotná ;  4/8 + 1/12
Milan Horáková ;  7% + 17% + 2%
