Jana Svoboda ;  3% + 92%
Eva Marková ;  10% + 74%
Michal Nováková ;  69%
Václav Marek ;  21%
Hana Horáková ;  13/98 + 9/96
Václav Veselá ;  19/58 + 2/8
Zdeněk Veselý ;  17/21
František Krejčí ;  18/31
Tomáš Horák ;  30% + 2% + 25%
Michal Novotná ;  39%
Anna Dvořáková ;  3/39
Michal Procházka ;  10/84 + 13/72
Václav Černý ;  11%
Jaroslav Svobodová ;  7/28
Věra Kučerová ;  8% + 28%
Jaroslav Marek ;  16% + 23% + 31%
Tomáš Pospíšilová ;  37/50
