Jiří Horák; 14% + 22% + 4%
Kateřina Procházka; 28/32
Lucie Svobodová; 27% + 28% + 0%
Michal Dvořáková; 59%
Josef Němcová; 45/45
Marie Veselý; 62%
Zdeněk Svoboda; 42/42
Milan Černý; 8% + 69%
Zdeněk Marek; 15% + 1%
Václav Novotná; 2/78 + 2/20
