Tomáš Horák; 8/16
František Kučera; 18/24
Jana Kučera; 66% + 20%
Tomáš Kučera; 17/24
Pavel Marková; 44%
Josef Procházková; 63%
Milan Kučerová; 5/36 + 1/8
Jakub Nováková; 5/9
Anna Novotný; 2/41
Jana Kučera; 9/68 + 3/14
Petr Svobodová; 74%
Věra Novotný; 0% + 25%
Josef Novák; 7/48
Jana Marková; 5/40
Michal Horák; 32% + 4% + 2%
