Jan Kučerová ;  2/8
Eva Krejčí ;  29/94 + 10/82
Petr Kučerová ;  34% + 43%
Václav Pospíšilová ;  60%
Kateřina Kučera ;  9% + 6% + 2%
Marie Novotná ;  10%
Michal Černý ;  10% + 25% + 32%
Pavel Černý ;  8/56 + 1/2
Alena Veselý ;  12/50 + 17/90
Jakub Pospíšilová ;  21% + 35%
Michal Veselá ;  78% + 16%
Jan Němec ;  2/14 + 1/20
Kateřina Kučerová ;  37% + 53%
Martin Marková ;  7/13
Michal Svobodová ;  60% + 17%
