Anna Krejčí ;  15% + 7% + 3%
Martin Svobodová ;  10/18
Jan Pospíšilová ;  26% + 18% + 7%
Lucie Dvořák ;  6/45
Václav Nováková ;  11/30
Jiří Novotný ;  16%
Václav Dvořáková ;  64%
Kateřina Pospíšilová ;  55%
Věra Svobodová ;  29%
Jakub Horák ;  18/20
Anna Pokorná ;  18% + 41%
Josef Němcová ;  19/38 + 22/82
Josef Veselá ;  17% + 8%
Petr Horák ;  43% + 29%
Alena Horáková ;  17%
Martin Němec ;  41%
