Alena Kučera; 42/50
Jana Černá; 66%
Alena Marek; 3%
Hana Dvořáková; 6/17
Anna Procházková; 14% + 12%
František Němcová; 3% + 51%
Pavel Horák; 32/45
Josef Krejčí; 13% + 28%
Václav Veselá; 20/40 + 16/42
Jan Novotný; 11/22
Eva Procházková; 99%
Václav Novotná; 3/23
Anna Svoboda; 17%
Jiří Dvořák; 1/2 + 8/26
Jakub Veselá; 80%
Jana Svoboda; 29/60 + 4/66
