Marie Kučerová; 12% + 11% + 24%
Miroslav Procházka; 9/56 + 15/74
Zdeněk Němcová; 6% + 19% + 16%
Marie Horáková; 13% + 0% + 32%
Václav Němec; 2/2
Zdeněk Marek; 15/56 + 37/88
Věra Němcová; 1/12
Zdeněk Kučerová; 23/86 + 19/60
Jan Kučera; 23/35
Lenka Procházka; 14/14
František Pospíšilová; 18/100 + 1/8
Michal Pokorná; 74%
Lucie Kučerová; 46%
Martin Svoboda; 24/72 + 4/14
Martin Horák; 6% + 5% + 29%
