Jan Novotná; 51%
Alena Marková; 29% + 21% + 25%
Jana Svoboda; 10/39
Martin Kučera; 10/31
Jan Novák; 78%
Jaroslav Horák; 53%
Jiří Němec; 17%
Jakub Němec; 21%
Marie Černý; 11% + 20%
Kateřina Němec; 74%
Anna Horák; 1%
Václav Svobodová; 24/78 + 6/12
Kateřina Kučera; 2/4
Petr Novotný; 75%
Jan Černý; 5/31
Petr Novotný; 4/19
Martin Veselá; 61%
