Michal Pokorná ;  5/20 + 4/18
Marie Němec ;  2% + 14%
Lenka Černý ;  7/27
Jaroslav Dvořáková ;  8/9
Lucie Černá ;  77%
Martin Horáková ;  3% + 61%
Eva Horák ;  36%
Eva Pokorná ;  4% + 0% + 4%
Petr Kučerová ;  85%
Jan Nováková ;  56%
František Němcová ;  68%
František Krejčí ;  19% + 26% + 28%
Petr Horáková ;  26/29
Petr Novotná ;  4/10
Kateřina Horáková ;  1% + 25%
Jiří Veselý ;  4/40
