Martin Novotná; 4/19
Petr Dvořák; 1% + 10% + 3%
Jaroslav Novotná; 26% + 20% + 25%
Jakub Procházka; 48%
Václav Horáková; 15% + 26% + 23%
František Procházková; 19/30
Hana Krejčí; 31/31
Milan Černý; 21% + 5% + 25%
Eva Dvořáková; 1/3
František Svobodová; 39/40
Anna Horáková; 25/31
Petr Dvořák; 23% + 23% + 9%
Jana Pokorná; 2/2
Hana Černá; 26%
Hana Černý; 93%
