Michal Krejčí; 19/98 + 20/74
Miroslav Krejčí; 13%
Lucie Černý; 5/17
František Novotný; 31%
Lucie Pospíšilová; 79% + 1%
Miroslav Černá; 31% + 4% + 22%
Marie Horáková; 1/1
Milan Marková; 24% + 3%
Miroslav Horáková; 10%
Miroslav Procházková; 73%
Alena Pospíšilová; 45/46
