Josef Němcová ;  7% + 57%
Zdeněk Krejčí ;  63%
Eva Černá ;  44%
Petr Dvořáková ;  29% + 0% + 16%
Lucie Marek ;  0%
Miroslav Svobodová ;  17/19
Lenka Veselý ;  32/40
Alena Dvořáková ;  89%
Jaroslav Dvořák ;  14/30 + 3/90
Jaroslav Veselá ;  23/52 + 8/22
