František Novotná ;  24% + 7%
Jana Novák ;  10/82 + 5/54
Jaroslav Procházka ;  19% + 15% + 7%
Jan Novotný ;  15%
Tomáš Kučerová ;  76%
Jana Černá ;  33%
Jiří Černý ;  98%
Martin Nováková ;  15%
Tomáš Novák ;  1/9
Kateřina Nováková ;  33/43
Alena Procházková ;  2/17
