Lenka Novák; 17/27
Milan Kučerová; 7/9
Pavel Procházka; 7/24
Tomáš Němcová; 2/11
Václav Kučera; 67%
Jan Svobodová; 15/86 + 1/12
Tomáš Procházková; 4/21
Jana Novotný; 8%
Zdeněk Marek; 32% + 63%
Anna Veselá; 29/33
Hana Novotný; 29% + 44%
Marie Svoboda; 11%
