Věra Veselá ;  32/41
Milan Procházková ;  17%
Jakub Procházková ;  1/4
Jana Procházková ;  6/98 + 10/30
Kateřina Veselý ;  16/18
Jana Novotná ;  3% + 16% + 31%
Věra Krejčí ;  5% + 9% + 9%
Pavel Černá ;  26% + 24% + 14%
Václav Svoboda ;  2/2
Jana Černá ;  1% + 27%
Josef Novák ;  1% + 28% + 8%
