Jaroslav Novotná; 28% + 22%
Milan Dvořák; 1%
Jana Nováková; 8/56 + 5/24
Zdeněk Marek; 91%
Věra Procházka; 20%
Pavel Novotná; 1% + 42%
Anna Marek; 41%
Eva Procházková; 10%
Václav Němcová; 7% + 27%
Jakub Kučerová; 68%
Alena Svobodová; 22% + 20% + 12%
Zdeněk Novotná; 88%
Anna Horáková; 10/12
Jakub Černá; 21%
