Jiří Krejčí; 15% + 18%
Zdeněk Marek; 36/47
Tomáš Procházka; 14/15
Alena Marková; 1/20
Michal Procházka; 95%
Lucie Marek; 8/19
Jiří Němcová; 20% + 16% + 22%
Hana Novák; 11/25
František Novák; 25%
Eva Kučera; 38% + 14%
František Horáková; 50% + 15%
Tomáš Černý; 18/30
Tomáš Veselý; 8% + 20% + 30%
Alena Procházka; 90%
Věra Horáková; 15%
