Václav Marková ;  59%
Pavel Pokorná ;  4/16
Alena Procházková ;  5/10
Lenka Němec ;  3/31
Petr Procházková ;  0%
Miroslav Nováková ;  29%
Lenka Kučerová ;  24% + 1% + 19%
Milan Kučera ;  9/76 + 3/8
Jakub Svoboda ;  43/47
Jana Dvořák ;  22/34
