Jakub Nováková; 80%
Milan Veselý; 2/2
Alena Horáková; 22/60 + 3/94
Milan Svobodová; 43%
Lenka Pospíšilová; 17%
Michal Dvořáková; 8% + 21% + 11%
Věra Pokorná; 23% + 6%
František Veselý; 3% + 11% + 29%
Josef Horák; 34% + 13%
Josef Pokorná; 30%
František Veselá; 8%
Eva Horák; 3/12
Martin Pokorná; 37/42
František Novotný; 34%
Martin Marková; 1% + 1%
Anna Němcová; 76% + 1%
