Lenka Novotná; 98%
Lucie Dvořáková; 88%
Alena Němcová; 18% + 7% + 1%
Tomáš Dvořák; 94%
František Marek; 15%
Lenka Novák; 10% + 28% + 7%
Michal Novák; 3/37
Jakub Novák; 2/9
Tomáš Kučerová; 31/84 + 5/48
Anna Černá; 17/45
Martin Kučerová; 27%
Zdeněk Kučera; 3% + 65%
Pavel Horáková; 24%
Martin Černý; 3% + 27% + 29%
Anna Procházka; 59% + 16%
František Krejčí; 13% + 80%
