Věra Pokorná ;  54%
Lucie Novotná ;  27/28
Michal Kučerová ;  15/34
Zdeněk Horáková ;  9% + 6%
Zdeněk Marek ;  85%
Marie Horáková ;  33%
Tomáš Svobodová ;  3% + 2%
Eva Kučera ;  4% + 15%
Josef Kučerová ;  34% + 53%
Martin Dvořák ;  2% + 26% + 17%
Miroslav Dvořáková ;  15% + 12%
Miroslav Veselý ;  53% + 27%
Anna Marková ;  10/54 + 24/94
Václav Horáková ;  4/41
Jaroslav Dvořáková ;  33% + 32% + 18%
