Jan Marková ;  29% + 27% + 26%
Martin Černá ;  89%
Lucie Marek ;  33/35
Jaroslav Marek ;  1/18
Anna Kučera ;  45%
Jana Horák ;  32/35
František Svoboda ;  71%
Kateřina Marek ;  22%
Jakub Novotný ;  20/46
Tomáš Dvořáková ;  3%
Milan Dvořák ;  19/50 + 8/30
Lucie Němec ;  3/26
Pavel Svoboda ;  87%
Věra Kučerová ;  46%
Josef Nováková ;  9% + 6%
Pavel Veselý ;  4%
Jakub Horák ;  15% + 13%
Jana Novák ;  12/15
