Petr Pokorná; 93%
Jana Nováková; 88%
Zdeněk Dvořák; 4% + 33%
Petr Černý; 4%
Jakub Kučera; 18/34
Martin Procházková; 2/15
Michal Horák; 34% + 10%
Hana Dvořák; 15/50
Václav Dvořák; 34%
Kateřina Veselá; 2% + 13% + 33%
Kateřina Pokorná; 3%
Jana Novák; 49%
Alena Kučerová; 90%
Jana Pospíšilová; 24/24
Jana Marek; 30/34
František Pospíšilová; 46%
