Alena Dvořáková ;  1/2
Jakub Horáková ;  88%
Michal Pospíšilová ;  24% + 51%
Alena Svobodová ;  27/31
Josef Němcová ;  20%
Zdeněk Kučera ;  19/38
Hana Svoboda ;  15% + 76%
Josef Němcová ;  34%
Pavel Němec ;  88% + 2%
Milan Dvořáková ;  31% + 2% + 3%
Jaroslav Procházková ;  20% + 12% + 31%
Věra Novák ;  50%
Josef Němcová ;  9/38 + 26/70
Lenka Novotný ;  59%
Michal Svoboda ;  1% + 10%
Marie Němec ;  5/36
Jakub Němec ;  35% + 19%
Marie Svobodová ;  71%
Jana Procházková ;  31% + 23% + 26%
