Marie Horáková; 36% + 9%
Zdeněk Marková; 52%
Jiří Horáková; 2%
František Němec; 7/15
Eva Veselý; 2/4 + 5/26
Kateřina Nováková; 9% + 27%
Tomáš Horák; 16%
Zdeněk Veselý; 37/37
Michal Němcová; 60%
Jaroslav Novák; 1% + 2%
Anna Dvořáková; 90%
Marie Marková; 37/92 + 26/100
Petr Horáková; 0% + 2%
