Jaroslav Dvořáková; 5/12 + 2/16
Jiří Černý; 4%
Martin Veselá; 19/74 + 11/48
Hana Marková; 14/16
Martin Němcová; 1/6
Pavel Pospíšilová; 4/12 + 2/8
Marie Černý; 15% + 27% + 6%
Petr Němcová; 5% + 14% + 25%
Josef Pospíšilová; 21/92 + 22/60
Lenka Kučera; 60%
Věra Novák; 2/41
Eva Kučerová; 22/26
