Jan Černá ;  6% + 32% + 5%
Hana Horáková ;  7% + 20% + 19%
Zdeněk Nováková ;  33/36
Marie Nováková ;  10%
Tomáš Marek ;  20/52 + 12/30
Jakub Pospíšilová ;  13% + 17% + 4%
Alena Němec ;  48% + 27%
Jan Horáková ;  2/4
Pavel Černý ;  5%
Pavel Procházka ;  14/16
Jaroslav Novotná ;  6% + 12% + 4%
