Lenka Novák; 42/44
Václav Novotná; 6/7
Martin Novotný; 17% + 15%
Jaroslav Novák; 1/2 + 36/100
Václav Dvořáková; 3/5
Jiří Procházková; 8% + 69%
Jana Krejčí; 9/37
Jaroslav Procházka; 22% + 69%
Alena Svoboda; 8/10
Tomáš Kučerová; 29%
Josef Černý; 4%
Pavel Němcová; 33% + 39%
Kateřina Kučera; 11/44
Jaroslav Svoboda; 31%
Martin Novotná; 74%
Jakub Svoboda; 13/14
