Zdeněk Pospíšilová ;  79%
Jakub Dvořáková ;  54%
Pavel Novák ;  4/24 + 12/54
Kateřina Novotný ;  40%
Martin Novotná ;  5% + 50%
Alena Novotná ;  13/23
Martin Kučera ;  71% + 22%
Alena Marek ;  1/5
Milan Kučera ;  31% + 27% + 29%
Martin Marková ;  13%
Věra Nováková ;  86%
Michal Novotná ;  4/6
Pavel Krejčí ;  14/42
Lucie Kučera ;  11/21
František Němec ;  2/18 + 19/50
Lucie Veselý ;  25/90 + 19/52
Jaroslav Novotný ;  26% + 15% + 20%
Jakub Marek ;  15/24
