Věra Svoboda; 12/32 + 10/28
Miroslav Marková; 22% + 2% + 16%
Petr Němcová; 22/50
Eva Němcová; 74%
Hana Veselý; 11%
Zdeněk Němcová; 26/72 + 24/92
Anna Svoboda; 8/36
Anna Marková; 77% + 15%
Václav Němec; 2% + 27% + 24%
Věra Pospíšilová; 37%
Eva Horák; 62%
Jana Marková; 25% + 44%
František Kučerová; 39%
Petr Veselý; 32% + 31% + 32%
Miroslav Marková; 20%
Lucie Veselý; 41/96 + 7/66
Jana Svoboda; 69%
