Tomáš Černý; 7% + 4%
Michal Němcová; 77%
Jan Veselá; 65%
Alena Černá; 86%
Lenka Novotný; 24%
Anna Němec; 5/8
František Dvořák; 23/80 + 1/2
Miroslav Pospíšilová; 1/4 + 14/76
Zdeněk Veselá; 43% + 2%
Milan Veselý; 2/8 + 37/74
Lenka Pokorná; 9% + 29% + 14%
Anna Horák; 12% + 19% + 3%
Eva Horák; 14/37
Jiří Kučera; 58%
Lucie Dvořák; 1/31
Věra Nováková; 91%
Petr Kučerová; 37/42
Jiří Novotná; 64%
