Anna Veselá ;  4/4
Petr Novotná ;  4% + 4%
Lucie Procházková ;  9/25
Lenka Novák ;  92%
Lucie Pospíšilová ;  75%
Lenka Procházková ;  1/8 + 15/44
Lucie Pokorná ;  4/6
Anna Veselý ;  10/16
Anna Novotná ;  71%
Michal Marek ;  75%
Alena Svobodová ;  15% + 18% + 33%
Milan Pospíšilová ;  82%
Hana Marek ;  7/31
Lenka Procházková ;  42% + 30%
Anna Kučerová ;  40/44
Eva Horák ;  34/94 + 13/88
Jaroslav Pospíšilová ;  6% + 27% + 20%
Milan Černá ;  66%
Kateřina Nováková ;  7/74 + 37/92
