Anna Černá ;  1%
Josef Černá ;  0% + 1%
František Procházková ;  3/5
Zdeněk Nováková ;  10% + 16%
Alena Němec ;  6/11
Marie Němec ;  96%
Věra Černý ;  40/40
Martin Pokorná ;  5/28 + 10/92
Anna Pokorná ;  23/27
Jana Veselá ;  29/29
Miroslav Procházková ;  33% + 16%
Jakub Němec ;  36/90 + 3/8
Pavel Procházka ;  33%
Václav Dvořák ;  53%
Lenka Novotná ;  3% + 10% + 24%
Kateřina Svobodová ;  10% + 9% + 32%
