Věra Novotná ;  3%
Miroslav Pokorná ;  24% + 17% + 3%
Marie Veselá ;  26%
Marie Kučera ;  17%
Martin Procházková ;  82%
František Nováková ;  6/6
Jiří Černá ;  17% + 15%
Miroslav Horák ;  33/82 + 24/96
Kateřina Kučerová ;  12% + 38%
Marie Pokorná ;  12/34
Josef Novotný ;  91%
Miroslav Horák ;  19% + 27% + 2%
Eva Černý ;  30% + 13% + 12%
Jan Svobodová ;  7/13
Lenka Procházková ;  16/32 + 5/38
Milan Marková ;  5/10
Jakub Pokorná ;  0% + 2%
