Tomáš Nováková ;  23%
Jana Novák ;  21% + 31% + 19%
Lucie Svoboda ;  12/33
Pavel Svoboda ;  7/13
Jaroslav Veselá ;  28/76 + 25/52
Jaroslav Pospíšilová ;  26/58 + 14/32
Tomáš Veselý ;  7/25
Pavel Novák ;  5% + 47%
Martin Černá ;  41% + 5%
Michal Horák ;  0%
Zdeněk Marek ;  86%
Hana Černá ;  15% + 22% + 16%
Jiří Kučera ;  21/24
