Miroslav Marek; 64%
Josef Kučerová; 4/4
Hana Dvořáková; 23%
Michal Dvořák; 59%
Josef Horák; 10/15
Marie Veselý; 35%
Jana Horák; 3/8
Lucie Nováková; 72%
Anna Marek; 46%
Pavel Procházková; 10/34 + 18/60
Pavel Procházková; 61%
Marie Svobodová; 11%
František Horáková; 42/42
Marie Horáková; 50%
Lenka Nováková; 64%
Lenka Dvořáková; 82%
Jiří Procházka; 10/41
Jana Svobodová; 41/84 + 4/74
