Pavel Dvořák ;  15/40
Věra Novotná ;  1/34
Jan Nováková ;  13/37
Jakub Černá ;  17% + 32% + 24%
Martin Novák ;  10% + 6%
Lenka Novotná ;  17/48 + 27/76
Anna Němcová ;  24/41
Eva Procházka ;  26% + 17%
Lucie Němec ;  9/42
Kateřina Horák ;  22% + 19% + 6%
Petr Dvořáková ;  6/27
Tomáš Pokorná ;  29/29
Jan Procházka ;  8/23
Lenka Horák ;  10% + 20% + 6%
Tomáš Horáková ;  11% + 21%
