Milan Černá ;  88%
Věra Novotný ;  27% + 12% + 23%
František Horáková ;  30%
Zdeněk Kučerová ;  4/23
Pavel Kučerová ;  25/50 + 18/40
Anna Nováková ;  95%
Pavel Pospíšilová ;  10/40 + 13/40
Michal Nováková ;  8/32 + 3/6
Alena Kučera ;  27% + 6% + 23%
Petr Veselá ;  18/38 + 3/6
Petr Veselá ;  41/90 + 5/74
Lenka Kučera ;  14/82 + 3/36
Alena Kučerová ;  11/21
Anna Marek ;  26% + 32% + 24%
Tomáš Marková ;  7%
Jana Dvořáková ;  5/8
