Jana Veselá; 2/3
Anna Černá; 55%
Martin Procházka; 4/78 + 24/68
Jakub Veselá; 25/44
Eva Marková; 20/52 + 2/6
Jiří Horák; 69%
Petr Pokorná; 54% + 41%
Jakub Novák; 11/35
Josef Černý; 24/33
Václav Veselá; 6/9
Jaroslav Procházková; 53%
