Josef Horák ;  7/15
Jaroslav Procházka ;  1/2 + 5/20
Pavel Marková ;  3/16
Anna Kučera ;  7/14 + 6/42
Petr Procházka ;  56% + 19%
František Horáková ;  7%
Věra Marková ;  85%
Martin Marek ;  11% + 21% + 2%
Lenka Veselá ;  26%
Martin Dvořák ;  44/100 + 13/52
Jiří Procházková ;  68%
Miroslav Svobodová ;  12/78 + 4/56
