Jiří Horák; 4/33
Zdeněk Procházka; 18% + 31% + 22%
Zdeněk Procházková; 28%
Jakub Pospíšilová; 3/34 + 17/68
Václav Marková; 5/64 + 6/12
Lenka Svoboda; 27% + 7%
Michal Marek; 19% + 17% + 18%
Josef Nováková; 13% + 15%
František Svoboda; 49%
Jaroslav Krejčí; 1/2
Anna Němcová; 1/1
Tomáš Marek; 1/10
Petr Novotná; 47% + 7%
Kateřina Svobodová; 13%
Zdeněk Horák; 80%
Anna Svobodová; 30/82 + 11/48
Tomáš Horák; 73%
