Miroslav Krejčí; 76%
Zdeněk Svoboda; 37/98 + 3/8
Josef Dvořák; 2/7
Lucie Němcová; 9/15
Jan Krejčí; 6/20 + 1/4
Alena Svobodová; 27/78 + 21/88
Pavel Nováková; 1/4
Michal Veselá; 10% + 14% + 32%
Jana Černá; 6/38 + 21/54
Petr Krejčí; 3/49
Josef Pospíšilová; 1% + 17% + 3%
Martin Novotný; 56% + 35%
Lenka Novák; 4/50 + 2/40
Lucie Černý; 64%
Marie Veselá; 4% + 22% + 30%
Jaroslav Procházková; 2% + 32%
Jiří Novák; 6/21
