Tomáš Nováková ;  13% + 18% + 1%
Lucie Horáková ;  53%
Jakub Marková ;  84%
Alena Svobodová ;  25/58 + 18/54
Petr Veselá ;  3/26
Hana Svobodová ;  52%
František Němcová ;  19% + 7% + 21%
Tomáš Horák ;  8/38 + 1/40
Kateřina Dvořáková ;  15/27
Miroslav Svobodová ;  17/49
Anna Nováková ;  97%
Josef Horáková ;  72% + 25%
