Zdeněk Horáková; 9/16
Alena Němec; 74% + 11%
Václav Horáková; 32% + 10%
Tomáš Kučerová; 6/20
Václav Kučera; 5/10
Petr Němec; 30/90 + 4/82
Jan Černá; 16/44 + 2/30
Zdeněk Dvořák; 99%
Jakub Kučera; 41%
Josef Svoboda; 15%
Kateřina Svobodová; 8/15
František Pospíšilová; 23% + 31% + 25%
Pavel Novotný; 61%
