Jana Horáková; 9/19
Miroslav Horák; 23/33
Miroslav Černá; 40/82 + 1/12
Anna Černá; 12/17
Jiří Černý; 44%
Jana Pokorná; 7% + 31%
Věra Černá; 44% + 10%
Jiří Svoboda; 1/8 + 4/40
Zdeněk Novotný; 8/16 + 3/14
Lucie Černý; 30% + 28% + 21%
Marie Kučera; 5/13
Miroslav Němec; 65%
