Lucie Veselá; 23% + 2% + 30%
Michal Veselá; 36%
Martin Horák; 2/6
Kateřina Horáková; 90%
Josef Krejčí; 3/14 + 21/48
Petr Horáková; 5%
Jakub Horáková; 3% + 19%
Věra Procházková; 82%
Milan Němec; 12/48
Eva Krejčí; 24% + 26% + 17%
