Petr Horáková; 30% + 7% + 17%
Pavel Marek; 51% + 23%
Petr Veselý; 32% + 9% + 33%
Marie Pospíšilová; 61%
Pavel Černá; 52% + 25%
Hana Pokorná; 25/26
Martin Pokorná; 12/66 + 39/88
Eva Dvořák; 10/11
Věra Němec; 18%
Pavel Novák; 3/27
Věra Procházka; 50%
