Lenka Procházková; 17/58 + 14/78
Věra Marek; 0% + 54%
Věra Pospíšilová; 42%
Zdeněk Krejčí; 1% + 1% + 22%
Marie Nováková; 6% + 6% + 8%
Miroslav Pokorná; 21%
Jaroslav Černá; 17% + 17% + 28%
Kateřina Nováková; 17/19
Martin Dvořáková; 2% + 15%
Jana Procházka; 30% + 28% + 24%
Martin Horák; 0% + 1%
Miroslav Kučerová; 16%
Lucie Marek; 15% + 25% + 21%
Josef Krejčí; 14% + 30%
Eva Dvořáková; 9% + 8% + 3%
Josef Krejčí; 22%
Milan Veselá; 1/6
Petr Novotný; 26/84 + 16/64
Věra Marková; 28/33
