Jiří Němec ;  38%
Václav Horáková ;  15% + 23% + 32%
Anna Černá ;  21/49
Michal Němec ;  57%
Eva Dvořáková ;  75%
Zdeněk Novák ;  47/47
Kateřina Svobodová ;  12% + 1% + 4%
František Marková ;  5% + 14% + 3%
Lenka Veselý ;  65% + 18%
Zdeněk Dvořáková ;  51%
Lenka Horáková ;  37%
Alena Dvořáková ;  78%
Jan Černý ;  29% + 28% + 1%
Zdeněk Marková ;  15% + 15% + 31%
