Jaroslav Krejčí ;  12% + 2% + 16%
František Dvořáková ;  3% + 21% + 6%
František Kučera ;  3/92 + 22/94
Michal Marková ;  88%
Věra Procházková ;  2% + 25%
Miroslav Svobodová ;  25/46
Zdeněk Pospíšilová ;  0% + 7%
Jan Kučera ;  92%
Václav Marková ;  4/39
Alena Kučera ;  7% + 21% + 18%
Tomáš Černý ;  70%
Jaroslav Nováková ;  8/28 + 13/66
Zdeněk Černý ;  16/27
František Dvořák ;  2/8 + 8/56
Jan Novotný ;  12% + 25%
