Zdeněk Černý ;  64%
Josef Němec ;  9/12
Jakub Němcová ;  9/21
Jakub Novák ;  49%
Hana Dvořáková ;  15/27
Jan Marková ;  5% + 6%
Marie Procházková ;  14% + 26% + 32%
Michal Pospíšilová ;  12% + 24% + 10%
Jana Veselý ;  7/8
Alena Černá ;  39% + 48%
Václav Černá ;  38%
Tomáš Dvořák ;  13/28
Tomáš Svoboda ;  21/35
Pavel Černý ;  7%
