Tomáš Dvořáková ;  68%
Milan Svobodová ;  3% + 27% + 5%
Jakub Marek ;  1/3
Jiří Němcová ;  93%
Petr Procházková ;  21% + 24% + 26%
Anna Procházka ;  12/24 + 34/70
Anna Procházka ;  3% + 9%
Petr Dvořák ;  11% + 13% + 21%
Pavel Dvořák ;  14% + 9%
Jaroslav Černá ;  3/15
František Nováková ;  20%
Lenka Kučera ;  60%
Milan Horáková ;  29% + 23%
