Milan Procházka ;  24/32
Jakub Procházková ;  22% + 5% + 13%
Kateřina Dvořáková ;  73%
Jiří Procházka ;  15/18
Michal Veselá ;  29% + 10%
Věra Pospíšilová ;  7%
Hana Černá ;  26%
Pavel Kučerová ;  42% + 4%
Pavel Pospíšilová ;  2/50 + 12/26
Václav Marek ;  1/14
Anna Procházková ;  14/88 + 6/90
