Hana Pokorná ;  26/35
Kateřina Horáková ;  14/25
Martin Pospíšilová ;  67%
Hana Horák ;  1/2 + 24/56
Jakub Černá ;  1/2 + 22/64
Václav Horáková ;  43%
Petr Svoboda ;  1/3
Jan Procházková ;  13/92 + 24/54
Jana Pokorná ;  33%
Anna Marková ;  33% + 28%
Anna Marková ;  1/10 + 37/92
Kateřina Kučerová ;  0% + 1%
Miroslav Krejčí ;  17/46
Milan Marek ;  2/12 + 9/20
