Martin Nováková; 17%
Josef Svobodová; 2% + 55%
Petr Svobodová; 26% + 13% + 32%
Michal Pospíšilová; 19/96 + 18/100
Jan Krejčí; 16/36 + 4/28
Věra Pokorná; 10/48 + 14/76
Jana Černá; 46%
Věra Novotný; 5/8
Jakub Horák; 32/50
Anna Marková; 29/76 + 14/54
Lucie Pokorná; 16% + 0% + 29%
Milan Němec; 18/25
Josef Marek; 2% + 4%
Jiří Novák; 2/64 + 38/76
Martin Krejčí; 9/30
Václav Pokorná; 22% + 23% + 27%
Marie Marek; 17% + 21% + 3%
Jakub Pokorná; 15%
