Václav Dvořáková; 10/40 + 9/78
Hana Dvořáková; 23%
Marie Novotný; 42%
Václav Veselá; 37/41
František Veselá; 7/33
Michal Pokorná; 4% + 7%
Kateřina Marková; 9/25
Milan Němcová; 4/84 + 1/78
Jakub Dvořák; 1/12 + 5/64
Tomáš Procházková; 48% + 37%
Jiří Veselý; 29/86 + 2/6
Tomáš Černý; 10/32 + 3/22
Michal Horáková; 12% + 7% + 32%
Josef Svoboda; 27% + 18% + 1%
Lenka Novák; 14/90 + 15/38
Zdeněk Marek; 15%
Lucie Němec; 8% + 11% + 20%
