Jiří Novotný ;  1/8
Pavel Němcová ;  40%
Tomáš Černá ;  93%
Jan Pokorná ;  6/32 + 19/52
František Krejčí ;  13/32
Pavel Pokorná ;  8/42 + 25/54
Miroslav Svobodová ;  90%
Lucie Svoboda ;  95%
Zdeněk Dvořák ;  5%
Jan Němcová ;  25/49
Hana Pospíšilová ;  33/84 + 1/2
Jakub Svobodová ;  19/19
Hana Marek ;  92%
Hana Němcová ;  0% + 1% + 31%
Miroslav Novák ;  64%
Pavel Novotný ;  41/82 + 29/76
Anna Němcová ;  24% + 8% + 30%
