Jakub Němec; 32/70 + 5/90
Jaroslav Svoboda; 74%
Jakub Horáková; 15%
Martin Svobodová; 1% + 39%
Michal Horáková; 9/11
Marie Horáková; 1/1
Miroslav Veselá; 5/41
František Němcová; 39%
Hana Němec; 8% + 47%
Kateřina Černý; 39%
Eva Novotný; 62%
Eva Svobodová; 3/28
Jakub Marková; 7% + 64%
Hana Svoboda; 13/50 + 1/2
