Martin Horáková ;  4% + 0% + 24%
Eva Veselý ;  83%
Eva Černá ;  69%
Petr Pokorná ;  8/30 + 22/68
Hana Veselý ;  37/80 + 26/60
Hana Marek ;  23/68 + 13/62
Hana Dvořáková ;  8/88 + 2/26
Jakub Horáková ;  58%
Petr Kučera ;  61%
Josef Dvořák ;  1/74 + 24/74
