Věra Němcová ;  10% + 5% + 16%
Jana Marková ;  60%
Martin Černý ;  13% + 7% + 21%
Václav Svobodová ;  6% + 3%
Jiří Horáková ;  46% + 29%
Věra Dvořák ;  6/16
Jana Kučera ;  3% + 8%
Petr Dvořáková ;  5/6
Petr Kučerová ;  99%
Kateřina Svobodová ;  52%
Milan Pospíšilová ;  21%
Marie Novák ;  17% + 78%
Jaroslav Horák ;  7% + 33% + 22%
Jakub Pospíšilová ;  14% + 2%
Eva Dvořák ;  26%
Tomáš Procházka ;  10/23
