Marie Němec ;  3/6 + 9/36
Marie Němcová ;  1/3
Eva Procházková ;  28/36
Petr Veselá ;  88%
Věra Novotná ;  16% + 10%
Hana Marek ;  7/40 + 31/96
Petr Pokorná ;  24%
Tomáš Marek ;  6/18
Lenka Svoboda ;  16% + 3%
Michal Veselý ;  32% + 3% + 25%
Kateřina Novák ;  11% + 74%
Hana Horák ;  4% + 3% + 2%
Kateřina Kučera ;  11/17
Tomáš Kučerová ;  16/46
František Marek ;  35/40
Lenka Veselá ;  3%
