Alena Pospíšilová ;  59%
Jaroslav Kučera ;  5% + 63%
Jakub Černý ;  74%
Lenka Novotný ;  12% + 8%
Milan Novotný ;  2/32 + 10/48
František Svobodová ;  16/21
Jaroslav Horák ;  30%
Lucie Svobodová ;  92% + 3%
Pavel Horáková ;  43%
Lucie Černá ;  6/29
Anna Němcová ;  38% + 19%
Josef Veselý ;  29%
Petr Novotný ;  95%
