Zdeněk Černý ;  71%
Zdeněk Veselá ;  14/58 + 1/16
Miroslav Černý ;  74%
Jaroslav Horáková ;  43/86 + 15/56
Pavel Krejčí ;  10% + 15%
Milan Němec ;  20%
Josef Svoboda ;  19% + 3%
Miroslav Černý ;  5/28 + 12/32
Hana Dvořáková ;  65%
Jakub Černá ;  25%
Jan Černá ;  2/52 + 7/88
