Petr Horáková; 52%
Lenka Procházka; 2/12 + 31/74
Jaroslav Marek; 56%
Miroslav Veselý; 5% + 5%
Jaroslav Horáková; 1/6
Michal Procházka; 34%
Jana Novotná; 30%
František Pokorná; 10% + 0% + 27%
Věra Marková; 22% + 30% + 12%
Lucie Černá; 66%
Pavel Veselá; 4/9
Michal Marek; 34%
Marie Kučera; 2% + 7%
Martin Pospíšilová; 48%
Jaroslav Novotný; 19% + 3% + 29%
Tomáš Kučerová; 20%
Tomáš Pospíšilová; 93%
